<?xml version="1.0" encoding="UTF-8"?>
<glyph name="u_e" format="2">
	<advance width="979"/>
	<unicode hex="F5110"/>
	<outline>
		<contour>
			<point x="910" y="53" type="curve" smooth="yes"/>
			<point x="939" y="191"/>
			<point x="878" y="327"/>
			<point x="700" y="327" type="curve" smooth="yes"/>
			<point x="663" y="327"/>
			<point x="628" y="322"/>
			<point x="596" y="312" type="curve"/>
			<point x="643" y="534" type="line"/>
			<point x="463" y="534" type="line"/>
			<point x="399" y="232" type="line" smooth="yes"/>
			<point x="384" y="161"/>
			<point x="339" y="108"/>
			<point x="282" y="108" type="curve" smooth="yes"/>
			<point x="225" y="108"/>
			<point x="207" y="138"/>
			<point x="212" y="189" type="curve" smooth="yes"/>
			<point x="215" y="216"/>
			<point x="220" y="245"/>
			<point x="223" y="262" type="curve" smooth="yes"/>
			<point x="281" y="534" type="line"/>
			<point x="101" y="534" type="line"/>
			<point x="35" y="222" type="line" smooth="yes"/>
			<point x="26" y="179"/>
			<point x="20" y="148"/>
			<point x="18" y="121" type="curve" smooth="yes"/>
			<point x="15" y="48"/>
			<point x="69" y="-14"/>
			<point x="179" y="-14" type="curve" smooth="yes"/>
			<point x="228" y="-14"/>
			<point x="268" y="-3"/>
			<point x="305" y="17" type="curve"/>
			<point x="367" y="88" type="line"/>
			<point x="362" y="74"/>
			<point x="358" y="59"/>
			<point x="355" y="44" type="curve" smooth="yes"/>
			<point x="315" y="-144"/>
			<point x="418" y="-235"/>
			<point x="571" y="-235" type="curve" smooth="yes"/>
			<point x="708" y="-235"/>
			<point x="822" y="-167"/>
			<point x="879" y="-46" type="curve"/>
			<point x="702" y="-46" type="line"/>
			<point x="686" y="-87"/>
			<point x="650" y="-113"/>
			<point x="599" y="-113" type="curve" smooth="yes"/>
			<point x="548" y="-113"/>
			<point x="514" y="-88"/>
			<point x="524" y="1" type="curve"/>
			<point x="896" y="1" type="line"/>
			<point x="902" y="19"/>
			<point x="907" y="37"/>
		</contour>
		<contour>
			<point x="553" y="111" type="line"/>
			<point x="579" y="177"/>
			<point x="618" y="205"/>
			<point x="665" y="205" type="curve" smooth="yes"/>
			<point x="713" y="205"/>
			<point x="738" y="174"/>
			<point x="734" y="111" type="curve"/>
		</contour>
	</outline>
	<lib>
		<dict>
			<key>com.schriftgestaltung.Glyphs.leftMetricsKey</key>
			<string>u</string>
			<key>com.schriftgestaltung.Glyphs.rightMetricsKey</key>
			<string>e</string>
		</dict>
	</lib>
</glyph>
