<?xml version="1.0" encoding="UTF-8"?>
<glyph name="Wacute" format="2">
	<advance width="1016"/>
	<unicode hex="1E82"/>
	<note>
		Wacute
	</note>
	<outline>
		<contour>
			<point x="574" y="735" type="line"/>
			<point x="670" y="735" type="line"/>
			<point x="851" y="860" type="line"/>
			<point x="691" y="860" type="line"/>
		</contour>
		<contour>
			<point x="797" y="0" type="line"/>
			<point x="1119" y="690" type="line"/>
			<point x="935" y="690" type="line"/>
			<point x="718" y="138" type="line"/>
			<point x="746" y="680" type="line"/>
			<point x="488" y="680" type="line"/>
			<point x="282" y="140" type="line"/>
			<point x="307" y="690" type="line"/>
			<point x="116" y="690" type="line"/>
			<point x="136" y="0" type="line"/>
			<point x="377" y="0" type="line"/>
			<point x="584" y="537" type="line"/>
			<point x="557" y="0" type="line"/>
		</contour>
	</outline>
</glyph>
