<?xml version="1.0" encoding="UTF-8"?>
<glyph name="aogonek" format="2">
	<advance width="545"/>
	<unicode hex="0105"/>
	<note>
		aogonek
	</note>
	<outline>
		<contour>
			<point x="292" y="-107" type="curve" smooth="yes"/>
			<point x="304" y="-50"/>
			<point x="351" y="-7"/>
			<point x="397" y="0" type="curve"/>
			<point x="413" y="0" type="line" smooth="yes"/>
			<point x="423" y="0"/>
			<point x="429" y="19"/>
			<point x="433" y="56" type="curve" smooth="yes"/>
			<point x="437" y="85"/>
			<point x="441" y="109"/>
			<point x="446" y="135" type="curve" smooth="yes"/>
			<point x="486" y="322" type="line" smooth="yes"/>
			<point x="491" y="347"/>
			<point x="496" y="375"/>
			<point x="499" y="397" type="curve" smooth="yes"/>
			<point x="509" y="487"/>
			<point x="468" y="545"/>
			<point x="331" y="545" type="curve" smooth="yes"/>
			<point x="239" y="545"/>
			<point x="157" y="506"/>
			<point x="110" y="434" type="curve" smooth="yes"/>
			<point x="105" y="426"/>
			<point x="102" y="417"/>
			<point x="102" y="407" type="curve" smooth="yes"/>
			<point x="102" y="379"/>
			<point x="124" y="357"/>
			<point x="152" y="357" type="curve" smooth="yes"/>
			<point x="173" y="357"/>
			<point x="189" y="370"/>
			<point x="197" y="387" type="curve" smooth="yes"/>
			<point x="220" y="439"/>
			<point x="258" y="465"/>
			<point x="312" y="465" type="curve" smooth="yes"/>
			<point x="375" y="465"/>
			<point x="395" y="435"/>
			<point x="389" y="392" type="curve" smooth="yes"/>
			<point x="387" y="372"/>
			<point x="383" y="354"/>
			<point x="379" y="334" type="curve" smooth="yes"/>
			<point x="376" y="321" type="line"/>
			<point x="342" y="321" type="line" smooth="yes"/>
			<point x="141" y="321"/>
			<point x="33" y="257"/>
			<point x="8" y="139" type="curve" smooth="yes"/>
			<point x="-13" y="40"/>
			<point x="53" y="-14"/>
			<point x="147" y="-14" type="curve" smooth="yes"/>
			<point x="184" y="-14"/>
			<point x="220" y="-9"/>
			<point x="252" y="3" type="curve" smooth="yes"/>
			<point x="278" y="13"/>
			<point x="292" y="28"/>
			<point x="307" y="51" type="curve" smooth="yes"/>
			<point x="325" y="77" type="line"/>
			<point x="320" y="9" type="line"/>
			<point x="260" y="-14"/>
			<point x="198" y="-67"/>
			<point x="183" y="-138" type="curve" smooth="yes"/>
			<point x="170" y="-201"/>
			<point x="205" y="-223"/>
			<point x="263" y="-223" type="curve" smooth="yes"/>
			<point x="300" y="-223"/>
			<point x="334" y="-214"/>
			<point x="366" y="-199" type="curve" smooth="yes"/>
			<point x="374" y="-195"/>
			<point x="379" y="-186"/>
			<point x="379" y="-177" type="curve" smooth="yes"/>
			<point x="379" y="-161"/>
			<point x="364" y="-150"/>
			<point x="349" y="-154" type="curve" smooth="yes"/>
			<point x="341" y="-156"/>
			<point x="333" y="-157"/>
			<point x="325" y="-157" type="curve" smooth="yes"/>
			<point x="298" y="-157"/>
			<point x="284" y="-144"/>
		</contour>
		<contour>
			<point x="204" y="66" type="curve" smooth="yes"/>
			<point x="146" y="66"/>
			<point x="114" y="92"/>
			<point x="126" y="148" type="curve" smooth="yes"/>
			<point x="143" y="229"/>
			<point x="234" y="258"/>
			<point x="360" y="248" type="curve"/>
			<point x="350" y="199" type="line" smooth="yes"/>
			<point x="332" y="113"/>
			<point x="273" y="66"/>
		</contour>
	</outline>
</glyph>
