<?xml version="1.0" encoding="UTF-8"?>
<glyph name="trademark" format="2">
	<advance width="539"/>
	<unicode hex="2122"/>
	<note>
		trademark
	</note>
	<outline>
		<contour>
			<point x="220" y="618" type="line"/>
			<point x="220" y="660" type="line"/>
			<point x="21" y="660" type="line"/>
			<point x="21" y="618" type="line"/>
			<point x="94" y="618" type="line"/>
			<point x="94" y="456" type="line"/>
			<point x="147" y="456" type="line"/>
			<point x="147" y="618" type="line"/>
		</contour>
		<contour>
			<point x="481" y="456" type="line"/>
			<point x="481" y="659" type="line"/>
			<point x="404" y="659" type="line"/>
			<point x="364" y="508" type="line"/>
			<point x="323" y="659" type="line"/>
			<point x="244" y="659" type="line"/>
			<point x="244" y="456" type="line"/>
			<point x="297" y="456" type="line"/>
			<point x="296" y="597" type="line"/>
			<point x="335" y="460" type="line"/>
			<point x="390" y="460" type="line"/>
			<point x="430" y="598" type="line"/>
			<point x="428" y="456" type="line"/>
		</contour>
	</outline>
</glyph>
