<?xml version="1.0" encoding="UTF-8"?>
<glyph name="v" format="2">
	<advance width="608"/>
	<unicode hex="0076"/>
	<note>
		v
	</note>
	<outline>
		<contour>
			<point x="405" y="0" type="line"/>
			<point x="616" y="534" type="line"/>
			<point x="419" y="534" type="line"/>
			<point x="310" y="143" type="line"/>
			<point x="200" y="534" type="line"/>
			<point x="0" y="534" type="line"/>
			<point x="211" y="0" type="line"/>
		</contour>
	</outline>
</glyph>
