<?xml version="1.0" encoding="UTF-8"?>
<glyph name="uF4410" format="2">
	<advance width="912"/>
	<unicode hex="F4410"/>
	<outline>
		<contour>
			<point x="552" y="178" type="curve" smooth="yes"/>
			<point x="557" y="227"/>
			<point x="553" y="271"/>
			<point x="532" y="302" type="curve"/>
			<point x="854" y="302" type="line"/>
			<point x="872" y="389" type="line"/>
			<point x="588" y="389" type="line"/>
			<point x="619" y="417"/>
			<point x="643" y="454"/>
			<point x="653" y="502" type="curve" smooth="yes"/>
			<point x="662" y="543"/>
			<point x="660" y="577"/>
			<point x="650" y="603" type="curve"/>
			<point x="946" y="603" type="line"/>
			<point x="964" y="690" type="line"/>
			<point x="185" y="690" type="line"/>
			<point x="39" y="0" type="line"/>
			<point x="149" y="0" type="line"/>
			<point x="210" y="288" type="line"/>
			<point x="317" y="288" type="line" smooth="yes"/>
			<point x="334" y="288"/>
			<point x="351" y="288"/>
			<point x="368" y="287" type="curve" smooth="yes"/>
			<point x="430" y="283"/>
			<point x="447" y="237"/>
			<point x="441" y="164" type="curve" smooth="yes"/>
			<point x="432" y="88"/>
			<point x="432" y="45"/>
			<point x="441" y="0" type="curve"/>
			<point x="828" y="0" type="line"/>
			<point x="846" y="88" type="line"/>
			<point x="544" y="88" type="line"/>
			<point x="545" y="113"/>
			<point x="547" y="143"/>
		</contour>
		<contour>
			<point x="228" y="373" type="line"/>
			<point x="277" y="603" type="line"/>
			<point x="399" y="603" type="line" smooth="yes"/>
			<point x="427" y="603"/>
			<point x="445" y="602"/>
			<point x="462" y="599" type="curve" smooth="yes"/>
			<point x="519" y="591"/>
			<point x="550" y="561"/>
			<point x="534" y="488" type="curve" smooth="yes"/>
			<point x="519" y="415"/>
			<point x="467" y="381"/>
			<point x="405" y="375" type="curve" smooth="yes"/>
			<point x="388" y="373"/>
			<point x="371" y="373"/>
			<point x="343" y="373" type="curve" smooth="yes"/>
		</contour>
	</outline>
	<lib>
		<dict>
			<key>com.schriftgestaltung.Glyphs.leftMetricsKey</key>
			<string>R</string>
			<key>com.schriftgestaltung.Glyphs.rightMetricsKey</key>
			<string>E</string>
		</dict>
	</lib>
</glyph>
