<?xml version="1.0" encoding="UTF-8" standalone="no"?>
<!-- Created with Inkscape (http://www.inkscape.org/) -->

<svg
   width="210mm"
   height="297mm"
   viewBox="0 0 210 297"
   version="1.1"
   id="svg5"
   inkscape:version="1.2.2 (b0a8486541, 2022-12-01)"
   sodipodi:docname="filter_experiment.svg"
   xmlns:inkscape="http://www.inkscape.org/namespaces/inkscape"
   xmlns:sodipodi="http://sodipodi.sourceforge.net/DTD/sodipodi-0.dtd"
   xmlns="http://www.w3.org/2000/svg"
   xmlns:svg="http://www.w3.org/2000/svg">
  <sodipodi:namedview
     id="namedview7"
     pagecolor="#ffffff"
     bordercolor="#666666"
     borderopacity="1.0"
     inkscape:showpageshadow="2"
     inkscape:pageopacity="0.0"
     inkscape:pagecheckerboard="0"
     inkscape:deskcolor="#d1d1d1"
     inkscape:document-units="mm"
     showgrid="false"
     inkscape:zoom="0.74687543"
     inkscape:cx="712.30084"
     inkscape:cy="546.94529"
     inkscape:window-width="1906"
     inkscape:window-height="1030"
     inkscape:window-x="0"
     inkscape:window-y="0"
     inkscape:window-maximized="1"
     inkscape:current-layer="layer1" />
  <defs
     id="defs2">
    <filter
       style="color-interpolation-filters:sRGB"
       id="filter396"
       x="0"
       y="0"
       width="1"
       height="1"
       inkscape:auto-region="true">
      <feTurbulence
         id="feTurbulence398"
         baseFrequency="0 4.5238654672395278"
         result="result1"
         numOctaves="1"
         type="fractalNoise" />
      <feDisplacementMap
         in2="result1"
         id="feDisplacementMap404"
         in="SourceGraphic"
         scale="50" />
    </filter>
    <filter
       style="color-interpolation-filters:sRGB"
       id="filter396-2"
       x="-0.033483111"
       y="-0.095941938"
       width="1.0669662"
       height="1.1918839"
       inkscape:auto-region="true">
      <feTurbulence
         id="feTurbulence398-0"
         baseFrequency="0.69999999999999996 0"
         result="result1"
         numOctaves="3"
         type="fractalNoise"
         seed="0" />
      <feMorphology
         id="feMorphology445"
         result="result2"
         operator="dilate"
         radius="0.29999999999999999" />
      <feDisplacementMap
         in2="result2"
         id="feDisplacementMap404-2"
         in="SourceGraphic"
         scale="50"
         xChannelSelector="R"
         yChannelSelector="R" />
    </filter>
    <filter
       id="filter_3"
       x="-20%"
       y="-20%"
       width="140%"
       height="140%"
       filterUnits="objectBoundingBox"
       primitiveUnits="userSpaceOnUse"
       color-interpolation-filters="sRGB">
      <feTurbulence
         type="fractalNoise"
         baseFrequency="0.1 0.1"
         numOctaves="2"
         seed="2"
         stitchTiles="stitch"
         x="0%"
         y="0%"
         width="100%"
         height="100%"
         result="turbulence1"
         id="feTurbulence157" />
      <feMorphology
         operator="dilate"
         radius="1 10"
         x="0%"
         y="0%"
         width="100%"
         height="100%"
         in="turbulence1"
         result="morphology"
         id="feMorphology159" />
      <feColorMatrix
         type="saturate"
         values="4"
         x="0%"
         y="0%"
         width="100%"
         height="100%"
         in="morphology"
         result="colormatrix3"
         id="feColorMatrix161" />
      <feDisplacementMap
         in="SourceGraphic"
         in2="colormatrix3"
         scale="50"
         xChannelSelector="A"
         yChannelSelector="A"
         x="0%"
         y="0%"
         width="100%"
         height="100%"
         result="displacementMap2"
         id="feDisplacementMap163" />
    </filter>
    <filter
       id="filter_4"
       x="-20%"
       y="-20%"
       width="140%"
       height="140%"
       filterUnits="objectBoundingBox"
       primitiveUnits="userSpaceOnUse"
       color-interpolation-filters="linearRGB">
      <feTurbulence
         type="fractalNoise"
         baseFrequency="0.1 0.1"
         numOctaves="1"
         seed="1"
         stitchTiles="stitch"
         x="0%"
         y="0%"
         width="100%"
         height="100%"
         result="turbulence1"
         id="feTurbulence15" />
      <feColorMatrix
         type="luminanceToAlpha"
         x="0%"
         y="0%"
         width="100%"
         height="100%"
         in="turbulence1"
         result="colormatrix4"
         id="feColorMatrix17" />
      <feMorphology
         operator="dilate"
         radius="1 1"
         x="0%"
         y="0%"
         width="100%"
         height="100%"
         in="colormatrix4"
         result="morphology"
         id="feMorphology19" />
      <feDisplacementMap
         in="SourceGraphic"
         in2="morphology"
         scale="50"
         xChannelSelector="A"
         yChannelSelector="A"
         x="0%"
         y="0%"
         width="100%"
         height="100%"
         result="displacementMap2"
         id="feDisplacementMap21" />
    </filter>
  </defs>
</svg>
